{
  "products": [
    {
      "id": 1,
      "category": "shoes",
      "image": "shoe1.jpg",
      "name": "Hiker",
      "price": 94.95,
      "skus": [
        {
          "sku": "17",
          "size": 7
        },
        {
          "sku": "18",
          "size": 8
        }
      ],
      "description": "This rugged boot will get you up the mountain safely."
    },
    {
      "id": 2,
      "category": "shoes",
      "image": "shoe2.jpg",
      "name": "Climber",
      "price": 78.99,
      "skus": [
        {
          "sku": "28",
          "size": 8
        },
        {
          "sku": "29",
          "size": 9
        }
      ],
      "description": "Sure-footed traction in slippery conditions."
    },
    {
      "id": 3,
      "category": "shoes",
      "image": "shoe3.jpg",
      "name": "Explorer",
      "price": 145.95,
      "skus": [
        {
          "sku": "37",
          "size": 7
        },
        {
          "sku": "38",
          "size": 8
        },
        {
          "sku": "39",
          "size": 9
        }
      ],
      "description": "Look stylish while stomping in the mud."
    },
    {
      "id": 4,
      "category": "backpack",
      "image": "backpack1.jpg",
      "name": "backpack 1",
      "price": 300,
      "skus": [
        {
          "sku": "40",
          "size": 7
        },
        {
          "sku": "41",
          "size": 8
        },
        {
          "sku": "42",
          "size": 9
        }
      ],
      "description": "Look stylish while stomping in the mud."
    },
    {
      "id": 5,
      "category": "backpack",
      "image": "backpack2.jpg",
      "name": "backpack 2",
      "price": 400,
      "skus": [
        {
          "sku": "45",
          "size": 7
        },
        {
          "sku": "46",
          "size": 8
        }
      ],
      "description": "Look stylish while stomping in the mud."
    }
  ],
  "shippingAddress": [
    {
      "city": "LA",
      "country": "USA",
      "id": 2
    },
    {
      "city": "New York",
      "country": "USA",
      "id": 3
    },
    {
      "city": "Hong Kong",
      "country": "China",
      "id": 4
    },
    {
      "city": "a",
      "country": "India",
      "id": 5
    },
    {
      "city": "b",
      "country": "USA",
      "id": 6
    }
  ],
  "bill": [
    {
      "idAddress": "2",
      "cart": [
        {
          "id": "4",
          "sku": "42",
          "quantity": 1
        },
        {
          "id": "3",
          "sku": "39",
          "quantity": 1
        }
      ],
      "id": 1
    },
    {
      "idAddress": "3",
      "cart": [
        {
          "id": "5",
          "sku": "45",
          "quantity": 4
        },
        {
          "id": "1",
          "sku": "18",
          "quantity": 1
        },
        {
          "id": "3",
          "sku": "37",
          "quantity": 2
        }
      ],
      "id": 2
    },
    {
      "idAddress": "4",
      "cart": [
        {
          "id": "5",
          "sku": "46",
          "quantity": 3
        },
        {
          "id": "3",
          "sku": "38",
          "quantity": 1
        }
      ],
      "id": 3
    },
    {
      "idAddress": "3",
      "cart": [
        {
          "id": "3",
          "sku": "38",
          "quantity": 1
        },
        {
          "id": "4",
          "sku": "42",
          "quantity": 1
        }
      ],
      "id": 4
    },
    {
      "idAddress": "4",
      "cart": [
        {
          "id": "5",
          "sku": "46",
          "quantity": 3
        }
      ],
      "id": 5
    },
    {
      "idAddress": "4",
      "cart": [
        {
          "id": "1",
          "sku": "18",
          "quantity": 1
        },
        {
          "id": "1",
          "sku": "17",
          "quantity": 1
        }
      ],
      "id": 6
    },
    {
      "idAddress": "6",
      "cart": [
        {
          "id": "1",
          "sku": "18",
          "quantity": 1
        }
      ],
      "id": 7
    }
  ]
}